{
  "manifestVersion": 1,
  "id": "upload-sp-provider-hosted-app",
  "name": "SharePoint Add-in uploader",
  "version": "1.2.25",
  "publisher": "projectumapsvsts",
  "public": true,
  "screenshots": [
        {
            "path": "images/screenshot-00.png"
        },
        {
            "path": "images/screenshot-01.png"
        }
    ],
  "content": {
      "details": {
          "path": "overview.md"
      }
  },
  "targets": [
    {
      "id": "Microsoft.VisualStudio.Services"
    }
  ],
  "repository": {
    "type": "git",
    "uri": "https://bitbucket.org/projectum/deployproviderhostedaddintosharepoint"
  },
  "scopes": [
    "vso.build"
  ],
  "description": "Defines a release task to upload SharePoint Add-in to tenant app catalog.",
  "categories": [
    "Build and release"
  ],
  "icons": {
    "default": "images/extensionlogo.png"
  },
  "files": [
	{
	  "path": "DeployProviderHostedAddinToSP"
	},
	{
    "path": "images/extensionlogo.png",
    "addressable": true
	}],
  "contributions": [
    {
      "id": "upload-sp-provider-hosted-app",
      "type": "ms.vss-distributed-task.task",
      "targets": [
        "ms.vss-distributed-task.tasks"
      ],
      "properties": {
        "name": "DeployProviderHostedAddinToSP"
      }
    }
  ]
}